{
    "legacy_addon_id": "SimilarThreads",
    "title": "Similar threads",
    "description": "Shows a list of similar threads when a user is creating or viewing a thread.",
    "version_id": 45,
    "version_string": "4.5",
    "dev": "XF2 Addons",
    "dev_url": "https://www.xf2addons.com/",
    "faq_url": "",
    "support_url": "",
    "extra_urls": [],
    "require": [],
    "icon": "icon.jpg"
}