{
    "legacy_addon_id": "",
    "title": "Member notes",
    "description": "Displays Member notes widget.",
    "version_id": 10,
    "version_string": "1.0",
    "dev": "XF2 Addons",
    "dev_url": "https://www.xf2addons.com/",
    "faq_url": "",
    "support_url": "",
    "extra_urls": [],
    "require": [],
    "icon": "icon.jpg"
}