{
    "legacy_addon_id": "",
    "title": "[TH] Trending",
    "description": "Showcase your trending content",
    "version_id": 1000170,
    "version_string": "1.0.1",
    "dev": "ThemeHouse",
    "dev_url": "https://www.themehouse.com",
    "faq_url": "https://www.themehouse.com/help/documentation/trending/faqs",
    "support_url": "https://www.themehouse.com/help",
    "extra_urls": [],
    "require": [],
    "icon": "icon.png"
}